{
  "schemaVersion": 1,
  "id": "scoreboard-overhaul",
  "name": "Scoreboard Overhaul",
  "version": "$version",
  "environment": "client",
  "icon": "assets/scoreboard-overhaul/icon.png",
  "entrypoints": {
    "client": [
      {
        "adapter": "kotlin",
        "value": "me.jfenn.scoreboardoverhaul.Main"
      }
    ],
    "modmenu": [
      "me.jfenn.scoreboardoverhaul.integrations.ModMenuIntegration"
    ]
  },
  "depends": {
    "fabricloader": ">=0.15.0",
    "minecraft": ">=1.20.2",
    "java": ">=17",
    "fabric-api": "*"
  },
  "contact": {
    "homepage": "https://gitlab.com/horrific-tweaks/scoreboard-overhaul/",
    "sources": "https://gitlab.com/horrific-tweaks/scoreboard-overhaul/",
    "issues": "https://gitlab.com/horrific-tweaks/scoreboard-overhaul/-/issues/"
  },
  "authors": [
    "fennifith"
  ],
  "description": "An improved, cuter, and non-invasive scoreboard sidebar UI redesign!",
  "mixins": [
    "mixins.scoreboardoverhaul.json"
  ],
  "custom": {
    "modmenu": {
      "links": {
        "Discord": "https://discord.horrific.dev"
      }
    }
  }
}
